R Basis
…
## [1] "numeric"

Group then summarize

library(tidyverse)
library(dplyr)
library(dslabs)
data(murders)
murders <- mutate(murders, rate = total / population * 10^5)

# group by region
murders %>% group_by(region)

## # A tibble: 51 × 6
## # Groups:   region [4]
##    state                abb   region    population total  rate
##    <chr>                <chr> <fct>          <dbl> <dbl> <dbl>
##  1 Alabama              AL    South        4779736   135  2.82
##  2 Alaska               AK    West          710231    19  2.68
##  3 Arizona              AZ    West         6392017   232  3.63
##  4 Arkansas             AR    South        2915918    93  3.19
##  5 California           CA    West        37253956  1257  3.37
##  6 Colorado             CO    West         5029196    65  1.29
##  7 Connecticut          CT    Northeast    3574097    97  2.71
##  8 Delaware             DE    South         897934    38  4.23
##  9 District of Columbia DC    South         601723    99 16.5 
## 10 Florida              FL    South       19687653   669  3.40
## # ℹ 41 more rows
…
Tibbles

# view the dataset
murders %>% group_by(region)

## # A tibble: 51 × 6
## # Groups:   region [4]
##    state                abb   region    population total  rate
##    <chr>                <chr> <fct>          <dbl> <dbl> <dbl>
##  1 Alabama              AL    South        4779736   135  2.82
##  2 Alaska               AK    West          710231    19  2.68
##  3 Arizona              AZ    West         6392017   232  3.63
##  4 Arkansas             AR    South        2915918    93  3.19
##  5 California           CA    West        37253956  1257  3.37
##  6 Colorado             CO    West         5029196    65  1.29
##  7 Connecticut          CT    Northeast    3574097    97  2.71
##  8 Delaware             DE    South         897934    38  4.23
##  9 District of Columbia DC    South         601723    99 16.5 
## 10 Florida              FL    South       19687653   669  3.40
## # ℹ 41 more rows
…
as_tibble(gapminder)

## # A tibble: 10,545 × 9
##    country   year infant_mortality life_expectancy fertility population      gdp
##    <fct>    <int>            <dbl>           <dbl>     <dbl>      <dbl>    <dbl>
##  1 Albania   1960            115.             62.9      6.19    1636054 NA      
##  2 Algeria   1960            148.             47.5      7.65   11124892  1.38e10
##  3 Angola    1960            208              36.0      7.32    5270844 NA      
##  4 Antigua…  1960             NA              63.0      4.43      54681 NA      
##  5 Argenti…  1960             59.9            65.4      3.11   20619075  1.08e11
##  6 Armenia   1960             NA              66.9      4.55    1867396 NA      
##  7 Aruba     1960             NA              65.7      4.82      54208 NA      
##  8 Austral…  1960             20.3            70.9      3.45   10292328  9.67e10
##  9 Austria   1960             37.3            68.8      2.7     7065525  5.24e10
## 10 Azerbai…  1960             NA              61.3      5.57    3897889 NA      
## # ℹ 10,535 more rows
## # ℹ 2 more variables: continent <fct>, region <fct>
…
